G04 #@! TF.GenerationSoftware,KiCad,Pcbnew,5.0.2-2.fc30*
G04 #@! TF.CreationDate,2018-12-19T16:04:52-05:00*
G04 #@! TF.ProjectId,dipole-antenna-circuit,6469706f-6c65-42d6-916e-74656e6e612d,rev?*
G04 #@! TF.SameCoordinates,Original*
G04 #@! TF.FileFunction,Legend,Bot*
G04 #@! TF.FilePolarity,Positive*
%FSLAX46Y46*%
G04 Gerber Fmt 4.6, Leading zero omitted, Abs format (unit mm)*
G04 Created by KiCad (PCBNEW 5.0.2-2.fc30) date Wed 19 Dec 2018 04:04:52 PM EST*
%MOMM*%
%LPD*%
G01*
G04 APERTURE LIST*
G04 APERTURE END LIST*
M02*
