G04 #@! TF.GenerationSoftware,KiCad,Pcbnew,5.0.2-2.fc30*
G04 #@! TF.CreationDate,2018-12-19T16:04:52-05:00*
G04 #@! TF.ProjectId,dipole-antenna-circuit,6469706f-6c65-42d6-916e-74656e6e612d,rev?*
G04 #@! TF.SameCoordinates,Original*
G04 #@! TF.FileFunction,Legend,Top*
G04 #@! TF.FilePolarity,Positive*
%FSLAX46Y46*%
G04 Gerber Fmt 4.6, Leading zero omitted, Abs format (unit mm)*
G04 Created by KiCad (PCBNEW 5.0.2-2.fc30) date Wed 19 Dec 2018 04:04:52 PM EST*
%MOMM*%
%LPD*%
G01*
G04 APERTURE LIST*
%ADD10C,0.250000*%
%ADD11C,0.300000*%
%ADD12C,0.150000*%
%ADD13C,0.120000*%
G04 APERTURE END LIST*
D10*
X158027619Y-97472857D02*
X158027619Y-98139523D01*
X157027619Y-97710952D01*
X158027619Y-98425238D02*
X158027619Y-99044285D01*
X157646666Y-98710952D01*
X157646666Y-98853809D01*
X157599047Y-98949047D01*
X157551428Y-98996666D01*
X157456190Y-99044285D01*
X157218095Y-99044285D01*
X157122857Y-98996666D01*
X157075238Y-98949047D01*
X157027619Y-98853809D01*
X157027619Y-98568095D01*
X157075238Y-98472857D01*
X157122857Y-98425238D01*
X157122857Y-99472857D02*
X157075238Y-99520476D01*
X157027619Y-99472857D01*
X157075238Y-99425238D01*
X157122857Y-99472857D01*
X157027619Y-99472857D01*
X157599047Y-100091904D02*
X157646666Y-99996666D01*
X157694285Y-99949047D01*
X157789523Y-99901428D01*
X157837142Y-99901428D01*
X157932380Y-99949047D01*
X157980000Y-99996666D01*
X158027619Y-100091904D01*
X158027619Y-100282380D01*
X157980000Y-100377619D01*
X157932380Y-100425238D01*
X157837142Y-100472857D01*
X157789523Y-100472857D01*
X157694285Y-100425238D01*
X157646666Y-100377619D01*
X157599047Y-100282380D01*
X157599047Y-100091904D01*
X157551428Y-99996666D01*
X157503809Y-99949047D01*
X157408571Y-99901428D01*
X157218095Y-99901428D01*
X157122857Y-99949047D01*
X157075238Y-99996666D01*
X157027619Y-100091904D01*
X157027619Y-100282380D01*
X157075238Y-100377619D01*
X157122857Y-100425238D01*
X157218095Y-100472857D01*
X157408571Y-100472857D01*
X157503809Y-100425238D01*
X157551428Y-100377619D01*
X157599047Y-100282380D01*
X157027619Y-100901428D02*
X157694285Y-100901428D01*
X157599047Y-100901428D02*
X157646666Y-100949047D01*
X157694285Y-101044285D01*
X157694285Y-101187142D01*
X157646666Y-101282380D01*
X157551428Y-101330000D01*
X157027619Y-101330000D01*
X157551428Y-101330000D02*
X157646666Y-101377619D01*
X157694285Y-101472857D01*
X157694285Y-101615714D01*
X157646666Y-101710952D01*
X157551428Y-101758571D01*
X157027619Y-101758571D01*
X157027619Y-102234761D02*
X157694285Y-102234761D01*
X157599047Y-102234761D02*
X157646666Y-102282380D01*
X157694285Y-102377619D01*
X157694285Y-102520476D01*
X157646666Y-102615714D01*
X157551428Y-102663333D01*
X157027619Y-102663333D01*
X157551428Y-102663333D02*
X157646666Y-102710952D01*
X157694285Y-102806190D01*
X157694285Y-102949047D01*
X157646666Y-103044285D01*
X157551428Y-103091904D01*
X157027619Y-103091904D01*
X156932380Y-87312142D02*
X156932380Y-86645476D01*
X157932380Y-87074047D01*
X156932380Y-86359761D02*
X156932380Y-85740714D01*
X157313333Y-86074047D01*
X157313333Y-85931190D01*
X157360952Y-85835952D01*
X157408571Y-85788333D01*
X157503809Y-85740714D01*
X157741904Y-85740714D01*
X157837142Y-85788333D01*
X157884761Y-85835952D01*
X157932380Y-85931190D01*
X157932380Y-86216904D01*
X157884761Y-86312142D01*
X157837142Y-86359761D01*
X157837142Y-85312142D02*
X157884761Y-85264523D01*
X157932380Y-85312142D01*
X157884761Y-85359761D01*
X157837142Y-85312142D01*
X157932380Y-85312142D01*
X157360952Y-84693095D02*
X157313333Y-84788333D01*
X157265714Y-84835952D01*
X157170476Y-84883571D01*
X157122857Y-84883571D01*
X157027619Y-84835952D01*
X156980000Y-84788333D01*
X156932380Y-84693095D01*
X156932380Y-84502619D01*
X156980000Y-84407380D01*
X157027619Y-84359761D01*
X157122857Y-84312142D01*
X157170476Y-84312142D01*
X157265714Y-84359761D01*
X157313333Y-84407380D01*
X157360952Y-84502619D01*
X157360952Y-84693095D01*
X157408571Y-84788333D01*
X157456190Y-84835952D01*
X157551428Y-84883571D01*
X157741904Y-84883571D01*
X157837142Y-84835952D01*
X157884761Y-84788333D01*
X157932380Y-84693095D01*
X157932380Y-84502619D01*
X157884761Y-84407380D01*
X157837142Y-84359761D01*
X157741904Y-84312142D01*
X157551428Y-84312142D01*
X157456190Y-84359761D01*
X157408571Y-84407380D01*
X157360952Y-84502619D01*
X157932380Y-83883571D02*
X157265714Y-83883571D01*
X157360952Y-83883571D02*
X157313333Y-83835952D01*
X157265714Y-83740714D01*
X157265714Y-83597857D01*
X157313333Y-83502619D01*
X157408571Y-83455000D01*
X157932380Y-83455000D01*
X157408571Y-83455000D02*
X157313333Y-83407380D01*
X157265714Y-83312142D01*
X157265714Y-83169285D01*
X157313333Y-83074047D01*
X157408571Y-83026428D01*
X157932380Y-83026428D01*
X157932380Y-82550238D02*
X157265714Y-82550238D01*
X157360952Y-82550238D02*
X157313333Y-82502619D01*
X157265714Y-82407380D01*
X157265714Y-82264523D01*
X157313333Y-82169285D01*
X157408571Y-82121666D01*
X157932380Y-82121666D01*
X157408571Y-82121666D02*
X157313333Y-82074047D01*
X157265714Y-81978809D01*
X157265714Y-81835952D01*
X157313333Y-81740714D01*
X157408571Y-81693095D01*
X157932380Y-81693095D01*
D11*
X139482142Y-86412142D02*
X139696428Y-86474047D01*
X139767857Y-86535952D01*
X139839285Y-86659761D01*
X139839285Y-86845476D01*
X139767857Y-86969285D01*
X139696428Y-87031190D01*
X139553571Y-87093095D01*
X138982142Y-87093095D01*
X138982142Y-85793095D01*
X139482142Y-85793095D01*
X139625000Y-85855000D01*
X139696428Y-85916904D01*
X139767857Y-86040714D01*
X139767857Y-86164523D01*
X139696428Y-86288333D01*
X139625000Y-86350238D01*
X139482142Y-86412142D01*
X138982142Y-86412142D01*
X141125000Y-87093095D02*
X141125000Y-86412142D01*
X141053571Y-86288333D01*
X140910714Y-86226428D01*
X140625000Y-86226428D01*
X140482142Y-86288333D01*
X141125000Y-87031190D02*
X140982142Y-87093095D01*
X140625000Y-87093095D01*
X140482142Y-87031190D01*
X140410714Y-86907380D01*
X140410714Y-86783571D01*
X140482142Y-86659761D01*
X140625000Y-86597857D01*
X140982142Y-86597857D01*
X141125000Y-86535952D01*
X142053571Y-87093095D02*
X141910714Y-87031190D01*
X141839285Y-86907380D01*
X141839285Y-85793095D01*
X143267857Y-86226428D02*
X143267857Y-87093095D01*
X142625000Y-86226428D02*
X142625000Y-86907380D01*
X142696428Y-87031190D01*
X142839285Y-87093095D01*
X143053571Y-87093095D01*
X143196428Y-87031190D01*
X143267857Y-86969285D01*
X143982142Y-86226428D02*
X143982142Y-87093095D01*
X143982142Y-86350238D02*
X144053571Y-86288333D01*
X144196428Y-86226428D01*
X144410714Y-86226428D01*
X144553571Y-86288333D01*
X144625000Y-86412142D01*
X144625000Y-87093095D01*
X147696428Y-87093095D02*
X147625000Y-87093095D01*
X147482142Y-87031190D01*
X147267857Y-86845476D01*
X146910714Y-86474047D01*
X146767857Y-86288333D01*
X146696428Y-86102619D01*
X146696428Y-85978809D01*
X146767857Y-85855000D01*
X146910714Y-85793095D01*
X146982142Y-85793095D01*
X147125000Y-85855000D01*
X147196428Y-85978809D01*
X147196428Y-86040714D01*
X147125000Y-86164523D01*
X147053571Y-86226428D01*
X146625000Y-86474047D01*
X146553571Y-86535952D01*
X146482142Y-86659761D01*
X146482142Y-86845476D01*
X146553571Y-86969285D01*
X146625000Y-87031190D01*
X146767857Y-87093095D01*
X146982142Y-87093095D01*
X147125000Y-87031190D01*
X147196428Y-86969285D01*
X147410714Y-86721666D01*
X147482142Y-86535952D01*
X147482142Y-86412142D01*
X138982142Y-89343095D02*
X138982142Y-88043095D01*
X139482142Y-88971666D01*
X139982142Y-88043095D01*
X139982142Y-89343095D01*
X141339285Y-89343095D02*
X141339285Y-88662142D01*
X141267857Y-88538333D01*
X141125000Y-88476428D01*
X140839285Y-88476428D01*
X140696428Y-88538333D01*
X141339285Y-89281190D02*
X141196428Y-89343095D01*
X140839285Y-89343095D01*
X140696428Y-89281190D01*
X140625000Y-89157380D01*
X140625000Y-89033571D01*
X140696428Y-88909761D01*
X140839285Y-88847857D01*
X141196428Y-88847857D01*
X141339285Y-88785952D01*
X141839285Y-88476428D02*
X142410714Y-88476428D01*
X142053571Y-88043095D02*
X142053571Y-89157380D01*
X142125000Y-89281190D01*
X142267857Y-89343095D01*
X142410714Y-89343095D01*
X143553571Y-89281190D02*
X143410714Y-89343095D01*
X143125000Y-89343095D01*
X142982142Y-89281190D01*
X142910714Y-89219285D01*
X142839285Y-89095476D01*
X142839285Y-88724047D01*
X142910714Y-88600238D01*
X142982142Y-88538333D01*
X143125000Y-88476428D01*
X143410714Y-88476428D01*
X143553571Y-88538333D01*
X144196428Y-89343095D02*
X144196428Y-88043095D01*
X144839285Y-89343095D02*
X144839285Y-88662142D01*
X144767857Y-88538333D01*
X144625000Y-88476428D01*
X144410714Y-88476428D01*
X144267857Y-88538333D01*
X144196428Y-88600238D01*
X145553571Y-89343095D02*
X145553571Y-88476428D01*
X145553571Y-88043095D02*
X145482142Y-88105000D01*
X145553571Y-88166904D01*
X145625000Y-88105000D01*
X145553571Y-88043095D01*
X145553571Y-88166904D01*
X146267857Y-88476428D02*
X146267857Y-89343095D01*
X146267857Y-88600238D02*
X146339285Y-88538333D01*
X146482142Y-88476428D01*
X146696428Y-88476428D01*
X146839285Y-88538333D01*
X146910714Y-88662142D01*
X146910714Y-89343095D01*
X148267857Y-88476428D02*
X148267857Y-89528809D01*
X148196428Y-89652619D01*
X148125000Y-89714523D01*
X147982142Y-89776428D01*
X147767857Y-89776428D01*
X147625000Y-89714523D01*
X148267857Y-89281190D02*
X148125000Y-89343095D01*
X147839285Y-89343095D01*
X147696428Y-89281190D01*
X147625000Y-89219285D01*
X147553571Y-89095476D01*
X147553571Y-88724047D01*
X147625000Y-88600238D01*
X147696428Y-88538333D01*
X147839285Y-88476428D01*
X148125000Y-88476428D01*
X148267857Y-88538333D01*
D12*
G04 #@! TO.C,T1*
X140716000Y-96012000D02*
X140716000Y-90678000D01*
X146558000Y-96012000D02*
X140716000Y-96012000D01*
X146558000Y-90678000D02*
X146558000Y-96012000D01*
X140716000Y-90678000D02*
X146558000Y-90678000D01*
D13*
G04 #@! TO.C,C1*
X150135000Y-92578733D02*
X150135000Y-92921267D01*
X149115000Y-92578733D02*
X149115000Y-92921267D01*
G04 #@! TO.C,C2*
X154365000Y-92578733D02*
X154365000Y-92921267D01*
X155385000Y-92578733D02*
X155385000Y-92921267D01*
G04 #@! TO.C,J1*
X137695000Y-91190000D02*
X137195000Y-91440000D01*
X137695000Y-91690000D02*
X137695000Y-91190000D01*
X137195000Y-91440000D02*
X137695000Y-91690000D01*
G04 #@! TO.C,L1*
X152078733Y-93115000D02*
X152421267Y-93115000D01*
X152078733Y-94135000D02*
X152421267Y-94135000D01*
G04 #@! TD*
M02*
