G04 #@! TF.GenerationSoftware,KiCad,Pcbnew,5.0.2-2.fc30*
G04 #@! TF.CreationDate,2018-12-19T16:04:52-05:00*
G04 #@! TF.ProjectId,dipole-antenna-circuit,6469706f-6c65-42d6-916e-74656e6e612d,rev?*
G04 #@! TF.SameCoordinates,Original*
G04 #@! TF.FileFunction,Soldermask,Bot*
G04 #@! TF.FilePolarity,Negative*
%FSLAX46Y46*%
G04 Gerber Fmt 4.6, Leading zero omitted, Abs format (unit mm)*
G04 Created by KiCad (PCBNEW 5.0.2-2.fc30) date Wed 19 Dec 2018 04:04:52 PM EST*
%MOMM*%
%LPD*%
G01*
G04 APERTURE LIST*
%ADD10C,0.100000*%
G04 APERTURE END LIST*
D10*
G36*
X136576000Y-96491000D02*
X131394000Y-96491000D01*
X131394000Y-94889000D01*
X136576000Y-94889000D01*
X136576000Y-96491000D01*
X136576000Y-96491000D01*
G37*
G36*
X157742812Y-93113624D02*
X157906784Y-93181544D01*
X158054354Y-93280147D01*
X158179853Y-93405646D01*
X158278456Y-93553216D01*
X158346376Y-93717188D01*
X158381000Y-93891259D01*
X158381000Y-94068741D01*
X158346376Y-94242812D01*
X158278456Y-94406784D01*
X158179853Y-94554354D01*
X158054354Y-94679853D01*
X157906784Y-94778456D01*
X157742812Y-94846376D01*
X157568741Y-94881000D01*
X157391259Y-94881000D01*
X157217188Y-94846376D01*
X157053216Y-94778456D01*
X156905646Y-94679853D01*
X156780147Y-94554354D01*
X156681544Y-94406784D01*
X156613624Y-94242812D01*
X156579000Y-94068741D01*
X156579000Y-93891259D01*
X156613624Y-93717188D01*
X156681544Y-93553216D01*
X156780147Y-93405646D01*
X156905646Y-93280147D01*
X157053216Y-93181544D01*
X157217188Y-93113624D01*
X157391259Y-93079000D01*
X157568741Y-93079000D01*
X157742812Y-93113624D01*
X157742812Y-93113624D01*
G37*
G36*
X157742812Y-90573624D02*
X157906784Y-90641544D01*
X158054354Y-90740147D01*
X158179853Y-90865646D01*
X158278456Y-91013216D01*
X158346376Y-91177188D01*
X158381000Y-91351259D01*
X158381000Y-91528741D01*
X158346376Y-91702812D01*
X158278456Y-91866784D01*
X158179853Y-92014354D01*
X158054354Y-92139853D01*
X157906784Y-92238456D01*
X157742812Y-92306376D01*
X157568741Y-92341000D01*
X157391259Y-92341000D01*
X157217188Y-92306376D01*
X157053216Y-92238456D01*
X156905646Y-92139853D01*
X156780147Y-92014354D01*
X156681544Y-91866784D01*
X156613624Y-91702812D01*
X156579000Y-91528741D01*
X156579000Y-91351259D01*
X156613624Y-91177188D01*
X156681544Y-91013216D01*
X156780147Y-90865646D01*
X156905646Y-90740147D01*
X157053216Y-90641544D01*
X157217188Y-90573624D01*
X157391259Y-90539000D01*
X157568741Y-90539000D01*
X157742812Y-90573624D01*
X157742812Y-90573624D01*
G37*
G36*
X136576000Y-87991000D02*
X131394000Y-87991000D01*
X131394000Y-86389000D01*
X136576000Y-86389000D01*
X136576000Y-87991000D01*
X136576000Y-87991000D01*
G37*
M02*
